<svg width="192" height="48" viewBox="0 0 192 48" fill="none" xmlns="http://www.w3.org/2000/svg">
<path d="M178.167 16.7038V21.3875H186.987V27.4087H178.167V32.0732H189.395V38.2369H171.758V10.5416H189.395V16.7038H178.167ZM153.292 24.3902L146.999 10.5447H139.868L153.292 38.5523L166.715 10.5462H159.584L153.292 24.3917V24.3902ZM130.996 26.4942L140.263 38.2357H132.618L123.799 26.9868H123.724V38.2357H117.308V10.5416H128.042C129.029 10.5434 129.988 10.7093 130.918 11.039C131.848 11.3687 132.697 11.8436 133.464 12.4639C133.839 12.7667 134.185 13.1003 134.501 13.4643C134.817 13.8284 135.098 14.2175 135.345 14.6312C135.592 15.0451 135.801 15.4775 135.972 15.9283C136.142 16.3791 136.272 16.8415 136.36 17.3153C136.448 17.7864 136.494 18.2618 136.496 18.741C136.498 19.2202 136.459 19.6959 136.376 20.1679C136.293 20.6403 136.169 21.1011 136.004 21.5509C135.838 22.0009 135.634 22.4323 135.392 22.8457C135.145 23.2655 134.864 23.6611 134.548 24.0323C134.233 24.4032 133.888 24.7445 133.513 25.0558C133.139 25.3668 132.74 25.6433 132.317 25.8852C131.895 26.1271 131.454 26.3306 130.996 26.496V26.4942ZM130.28 19.0072C130.28 18.6307 130.203 18.2687 130.051 17.9221C129.898 17.5729 129.682 17.2677 129.405 17.0063C129.127 16.745 128.809 16.5486 128.452 16.4168C128.09 16.2803 127.717 16.2176 127.33 16.2286H123.724V21.737H127.33C127.713 21.7554 128.084 21.6993 128.445 21.5693C128.805 21.439 129.127 21.2447 129.41 20.9861C129.688 20.7306 129.904 20.4301 130.057 20.0845C130.205 19.7399 130.279 19.3805 130.28 19.0055V19.0072ZM103.033 27.0823C103.033 30.4333 100.907 32.542 97.7797 32.542C94.6565 32.542 92.5458 30.4394 92.5458 27.0823V10.54H86.1297V27.0119C86.1297 33.9548 90.9827 38.5539 97.7971 38.5539C104.612 38.5539 109.458 33.9484 109.458 27.0119V10.5416H103.044L103.031 27.0823H103.033ZM33.6172 34.7922C33.5214 34.8296 33.4395 34.8867 33.3711 34.963C33.3036 35.0369 33.2588 35.1227 33.2362 35.2202C33.2114 35.3185 33.2134 35.4163 33.2426 35.5136C33.2659 35.6076 33.3194 35.6954 33.3837 35.7706C33.6597 36.1861 34.1519 36.9014 34.8639 37.9093C35.5743 38.9176 36.1277 39.6844 36.5148 40.2238C36.6733 40.4936 36.8914 40.5107 37.1674 40.2819C38.1778 39.445 39.124 38.5411 40.0054 37.569C41.2337 36.1001 42.2441 34.4937 43.0367 32.7506C43.8292 31.0075 44.3753 29.1902 44.6748 27.2988C44.7171 27.2581 44.6341 27.2988 44.4396 27.4163C39.1995 30.9366 35.593 33.3983 33.619 34.7922H33.6172ZM43.295 16.4183C43.2353 16.4012 43.0833 16.4654 42.8483 16.6175L35.51 21.5803C33.1318 23.2031 30.7484 24.8179 28.3597 26.4254C28.0085 26.6294 27.7325 26.9289 27.5617 27.2878C27.5021 27.5151 27.626 27.8615 27.9427 28.3305L30.8874 32.4245C31.1634 32.8118 31.3797 33.0235 31.5397 33.0581C31.6967 33.0942 31.9742 32.9813 32.3676 32.713C33.6589 31.7934 34.9686 30.9005 36.297 30.0347C37.5012 29.2493 38.6942 28.4465 39.8751 27.6265C41.3893 26.6281 42.8895 25.6087 44.3753 24.5688C44.5527 24.4823 44.6948 24.3559 44.8013 24.1895C44.9078 24.0231 44.9636 23.8413 44.9679 23.6439C44.8599 21.2846 44.3919 18.9988 43.5645 16.787C43.4409 16.5642 43.3531 16.4419 43.295 16.4183ZM21.804 19.2722C21.804 19.6109 21.9279 19.9386 22.1568 20.1974L25.1518 24.4623C25.387 24.8072 25.5639 24.9905 25.7162 25.0079C25.9958 24.9777 26.2428 24.8722 26.4579 24.691C27.2105 24.1925 29.7349 22.4881 34.036 19.5638C37.8258 16.9861 40.311 15.3349 41.4917 14.4899C41.8839 14.2625 42.0908 14.0867 42.1079 13.9753C42.1253 13.8578 42.0201 13.6305 41.7787 13.2839C40.746 11.7696 39.5438 10.4044 38.1722 9.18836C37.7787 8.79617 37.5137 8.60187 37.3727 8.60187C37.036 8.69172 36.7309 8.8443 36.457 9.05985C36.4334 9.05857 36.4117 9.06369 36.3909 9.07547C36.3699 9.08494 36.3528 9.09902 36.3395 9.11771C36.3205 9.13511 36.2391 9.16481 36.2217 9.17582C36.2453 9.17582 36.203 9.18836 36.2217 9.17582C31.628 12.2949 27.0316 15.4099 22.4328 18.5211C22.1256 18.6895 21.9164 18.9399 21.8056 19.2722H21.804ZM32.7014 39.5323C32.0492 38.6307 31.6275 38.027 31.433 37.7165C31.1163 37.2933 30.8813 37.0596 30.7228 37.025C30.3885 37.023 30.0728 37.099 29.7756 37.2524C29.0299 37.5655 28.2639 37.8176 27.478 38.0083C26.6921 38.1993 25.8959 38.3265 25.0895 38.3903C24.2834 38.454 23.4772 38.4535 22.6708 38.3887C21.8647 38.3237 21.0688 38.1952 20.2831 38.0035C19.5354 37.844 18.8058 37.6246 18.0941 37.3455C17.3824 37.0665 16.6981 36.7317 16.0412 36.3405C15.3843 35.9496 14.7638 35.5077 14.1793 35.0149C13.5946 34.5226 13.0542 33.9855 12.5576 33.4044C9.4779 29.7244 8.47438 25.6632 9.53755 21.2337C10.9128 15.4273 14.4658 11.8648 20.1889 10.5587C21.4869 10.2712 22.7994 10.1653 24.1265 10.2408C25.4536 10.3166 26.7456 10.571 28.0023 11.0039C28.2504 11.1045 28.5064 11.1337 28.7706 11.092C29.0342 11.0497 29.2695 10.9443 29.4761 10.7751C29.6361 10.6591 30.4876 10.0854 32.0274 9.04731C33.5247 8.04532 34.3951 7.44782 34.6304 7.25966C34.8654 7.0715 35.0065 6.95553 35.041 6.91483C35.041 6.83803 34.9046 6.7218 34.6286 6.56974C33.6151 5.98068 32.5594 5.48072 31.4614 5.06984C30.3634 4.65896 29.2385 4.34279 28.0873 4.12161C26.9361 3.90043 25.7743 3.77729 24.6024 3.7522C23.4304 3.72686 22.2643 3.80008 21.1046 3.9716C19.9375 4.11393 18.7909 4.35304 17.6643 4.68916C16.5376 5.02529 15.447 5.45332 14.3928 5.97352C13.3386 6.49371 12.3354 7.09863 11.3833 7.7883C10.4312 8.47796 9.54343 9.24263 8.72064 10.0821C8.03123 10.7615 7.39328 11.486 6.80653 12.2558C6.21952 13.0255 5.68986 13.8327 5.21728 14.6775C4.74471 15.5221 4.33384 16.3958 3.98491 17.2984C3.63598 18.2014 3.35207 19.1242 3.1337 20.0671C2.91866 21.0048 2.77121 21.9533 2.69185 22.9123C2.61249 23.871 2.60173 24.8307 2.65985 25.7912C2.71796 26.7515 2.84416 27.7031 3.03872 28.6454C3.23328 29.5875 3.49389 30.5114 3.82055 31.4163C4.15232 32.331 4.5481 33.217 5.00839 34.0746C5.46817 34.9317 5.98784 35.7514 6.56666 36.5338C7.14547 37.3159 7.77779 38.0521 8.46336 38.7425C9.14893 39.433 9.88058 40.0707 10.6586 40.6551C11.4732 41.2867 12.3305 41.8542 13.2303 42.357C14.1304 42.8598 15.063 43.2919 16.0282 43.6544C16.9933 44.0167 17.9802 44.3044 18.9888 44.5179C19.9974 44.7314 21.0163 44.8679 22.0454 44.9278C23.0784 45.0127 24.1121 45.0222 25.1464 44.9564C26.1809 44.8909 27.2049 44.7501 28.2189 44.5348C29.2327 44.3192 30.2254 44.0315 31.1972 43.6713C32.169 43.3111 33.1095 42.8821 34.0186 42.3847C34.0964 42.3614 34.1627 42.3201 34.218 42.2605C34.2723 42.2021 34.3094 42.1343 34.3291 42.0567C34.3486 41.9799 34.3468 41.9034 34.3235 41.8273C34.3004 41.7513 34.2595 41.6865 34.2006 41.6333C33.8478 41.1474 33.354 40.4447 32.7014 39.5323ZM54.3007 24.3039C54.26 32.1139 60.3579 38.7876 70.1094 38.8344C74.7223 38.858 77.7708 37.312 80.7498 34.9614L77.2375 29.9407C76.7588 30.3798 76.2429 30.7697 75.6902 31.1107C75.1373 31.4514 74.5572 31.7368 73.95 31.967C73.3427 32.1974 72.7191 32.3681 72.0794 32.4795C71.4394 32.5911 70.7948 32.6413 70.1453 32.63C64.8755 32.6065 61.6028 28.9452 61.6266 24.34C61.6499 19.7345 64.9631 16.108 70.2269 16.1313C70.8759 16.126 71.5198 16.1818 72.1582 16.299C72.7967 16.4163 73.4182 16.5929 74.0229 16.8287C74.6278 17.0645 75.2049 17.3553 75.7542 17.7011C76.3034 18.047 76.8151 18.4415 77.2892 18.8849L80.8548 13.8988C77.907 11.52 74.8618 9.94408 70.2569 9.92052C60.4989 9.89083 54.3291 16.5125 54.2884 24.3228L54.3007 24.3039Z" fill="black"/>
</svg>
